{
  "validation": {
    "files": {
      "media": {
        "allowed": {
          "size": 26214400,
          "dimension": 440,
          "extensions": [
            "jpeg",
            "jpg",
            "png",
            "avi",
            "mp4"
          ]
        }
      },
      "watermark": {
        "allowed": {
          "size": 26214400,
          "dimension": 440,
          "extensions": [
            "jpeg",
            "jpg",
            "png",
            "avi",
            "mp4"
          ]
        }
      }
    }
  }
}